<?xml version="1.0" encoding="utf-8"?>
<!-- Generator: Adobe Illustrator 17.0.0, SVG Export Plug-In . SVG Version: 6.00 Build 0)  -->
<!DOCTYPE svg PUBLIC "-//W3C//DTD SVG 1.1//EN" "http://www.w3.org/Graphics/SVG/1.1/DTD/svg11.dtd">
<svg version="1.1" id="Layer_1" xmlns="http://www.w3.org/2000/svg" xmlns:xlink="http://www.w3.org/1999/xlink" x="0px" y="0px"
	 width="500px" height="400px" viewBox="0 0 500 400" enable-background="new 0 0 500 400" xml:space="preserve">
<g>
	<g>
		<path fill="#56321C" d="M251.016,322.653c0,0,3.693,9.321,2.638,12.838c-1.055,3.517-1.224,17.059-1.224,17.059
			s11.424,6.243,16.7,6.947c5.276,0.703,19.873,12.574,30.776,6.947s29.099-11.236,26.786-16.707
			c-7.881-18.642-24.06-12.31-27.753-19.521s-0.791-18.993-0.791-19.697"/>
		<polygon fill="#EF6B83" points="298,72.017 298,89.465 300.551,93.368 333.969,94.976 331.137,61.455 		"/>
		<polygon fill="#922F41" points="330.882,61.455 355.448,72.935 356.825,93.368 333.866,94.976 		"/>
		<path fill="#FE8D9F" d="M328.813,81.323c0,1.074-0.926,1.784-2.067,1.588c-1.14-0.196-2.063-1.224-2.063-2.296
			c0-1.072,0.923-1.783,2.063-1.589C327.887,79.221,328.813,80.249,328.813,81.323z"/>
		<path fill="#D36C80" d="M336.964,71.122c-1.047,0.239-1.946-0.506-2.008-1.662c-0.062-1.155,0.735-2.284,1.78-2.522
			c1.045-0.238,1.943,0.504,2.007,1.658C338.807,69.752,338.01,70.883,336.964,71.122z"/>
		<path fill="#D36C80" d="M340.637,79.387c-1.047,0.239-1.946-0.506-2.008-1.662c-0.062-1.155,0.735-2.284,1.78-2.522
			c1.045-0.238,1.944,0.504,2.007,1.658C342.48,78.017,341.684,79.149,340.637,79.387z"/>
		<path fill="#D36C80" d="M336.045,86.734c-1.047,0.239-1.946-0.506-2.008-1.662c-0.062-1.155,0.735-2.284,1.78-2.522
			c1.045-0.238,1.943,0.504,2.007,1.658C337.889,85.364,337.092,86.496,336.045,86.734z"/>
		<path fill="#D36C80" d="M346.836,75.988c-0.926,0.211-1.722-0.448-1.777-1.471c-0.055-1.022,0.65-2.021,1.575-2.232
			c0.925-0.211,1.72,0.446,1.777,1.468C348.468,74.776,347.763,75.777,346.836,75.988z"/>
		<path fill="#D36C80" d="M345.707,84.327c-0.926,0.211-1.722-0.448-1.777-1.471c-0.055-1.022,0.65-2.021,1.575-2.232
			c0.925-0.211,1.72,0.446,1.777,1.468C347.338,83.115,346.633,84.116,345.707,84.327z"/>
		<path fill="#D36C80" d="M351.713,78.426c-0.926,0.211-1.722-0.448-1.777-1.471c-0.055-1.022,0.65-2.021,1.575-2.232
			c0.925-0.211,1.72,0.446,1.777,1.468C353.344,77.214,352.639,78.215,351.713,78.426z"/>
		<polygon fill="#C9D9F0" points="293.229,82.911 329.504,81.586 318.024,131 281.979,131 		"/>
		<polygon fill="#B20F12" points="338.688,87.17 363.254,71.787 378.407,120.231 358.547,135.384 		"/>
		<polygon fill="#DE4641" points="363.254,71.787 383.736,78.779 398.611,126.889 378.407,120.231 		"/>
		<polygon fill="#C9D9F0" points="371.022,74.439 385.575,122.593 392.242,124.097 377.271,76.572 		"/>
		<polygon fill="#C9D9F0" points="366.253,129.504 346.723,82.119 354.302,77.393 371.022,125.865 		"/>
		<polyline fill="#B2B0D5" points="329.504,81.43 345.346,99.338 318.024,130.792 		"/>
		<polyline fill="#B80E11" points="294.836,130.792 305.741,82.332 315.034,81.979 303.79,130.792 		"/>
		<polygon fill="#912E42" points="312.514,103.7 313.662,131.94 343.509,148.011 341.213,93.828 		"/>
		<polygon fill="#661825" points="340.295,93.828 361.647,107.603 363.024,134.924 351.66,152.833 342.591,148.011 		"/>
		<polygon fill="#DE2233" points="321.876,136.857 319.622,100.939 327.093,98.369 328.379,140.359 		"/>
		<path fill="#720002" d="M348.836,99.338l2.824,53.495l5.864-9.24c0,0-2.622-39.468-2.994-40.144
			C354.158,102.772,348.836,99.338,348.836,99.338z"/>
		<polygon fill="#ADC5E9" points="348.56,143.19 366.698,117.016 374.274,142.042 364.861,156.736 346.953,145.486 		"/>
		<polygon fill="#9BBFE1" points="366.698,117.016 397.922,125.511 405.948,151.685 374.274,144.157 		"/>
		<polyline fill="#7196B0" points="364.861,156.736 374.274,142.042 405.948,151.685 394.937,164.542 372.897,162.475 
			364.861,157.654 		"/>
		<polyline fill="#9B121C" points="352.516,148.981 369.589,127.374 371.537,134.35 356.821,151.685 352.516,149.941 		"/>
		<polygon fill="#9B121C" points="385.405,145.43 393.944,148.03 386.323,163.734 377.489,162.906 		"/>
		<polyline fill="#9B121C" points="369.589,127.374 400.445,133.738 402.221,139.529 371.537,134.35 		"/>
		<polyline fill="#9B121C" points="385.405,145.43 380.143,120.674 389.159,123.127 393.944,148.03 		"/>
		<path fill="#FE8D9F" d="M316.874,79.486c0,1.074-0.926,1.784-2.067,1.588c-1.14-0.196-2.063-1.224-2.063-2.296
			s0.923-1.783,2.063-1.589C315.948,77.384,316.874,78.412,316.874,79.486z"/>
		<path fill="#FE8D9F" d="M325.139,72.139c0,1.074-0.926,1.784-2.067,1.588c-1.14-0.196-2.063-1.224-2.063-2.296
			s0.923-1.783,2.063-1.589C324.213,70.037,325.139,71.065,325.139,72.139z"/>
		<path fill="#D41B20" d="M295.295,126.889c0,0,28.24,0.459,49.821,16.99c21.582,16.531,36.735,22.959,45.229,19.056
			c8.495-3.903,12.848-8.265,12.848-8.265s8.275,3.133,7.471,9.373c-0.804,6.24-1.033,13.127-11.135,20.933
			c-10.102,7.806-3.903,14.464-2.296,19.515c1.607,5.051-1.837,11.02,1.607,13.316c3.444,2.296,10.212,20.204,11.879,21.352
			c1.667,1.148,8.096,39.26-7.976,51.888c-16.071,12.628-14.235,22.27-19.974,27.551c-5.74,5.281-3.444,8.036-16.531,8.036
			c-13.087,0-16.99-3.673-25.485,0c-8.495,3.673-27.781,9.184-39.03,5.51c-11.25-3.673-26.633-34.898-20.434-60.842
			s8.954-86.785,3.214-102.857s10.791-40.638,10.791-40.638"/>
		<path fill="#452510" d="M335.703,154.21c0,0,11.326,8.139,11.786,8.355c0.459,0.216-1.99,6.491-1.99,6.491
			s-9.643-5.851-10.408-8.053C334.325,158.802,335.703,154.21,335.703,154.21z"/>
		<path fill="#8F1417" d="M363.852,167.986c0,0-1.058,8.112-2.894,13.622c-1.837,5.51-1.837,5.51-1.837,5.51
			S365.675,179.312,363.852,167.986z"/>
		<path fill="#8F1417" d="M390.807,167.22c0,0,2.6,6.888-1.227,10.332c-3.827,3.444-3.827,3.444-3.827,3.444"/>
		<path fill="#452510" d="M364.631,171.353c0,0-0.153,5.204-0.765,5.663s19.439,3.214,22.959,1.224
			c3.52-1.99,4.745-7.806,3.52-7.653C389.121,170.741,376.57,175.792,364.631,171.353z"/>
		<path fill="#AE0F14" d="M397,188.037c0,0-29.041,10.408-33.327,8.571s-43.908-1.531-51.714,27.245
			c-7.806,28.775-26.852,68.877-26.24,78.061c0.612,9.184,3.946,27.857,14.048,28.775c10.102,0.918,33.044-2.755,37.024-3.98
			s17.747-0.918,22.339-0.918c4.592,0,24.179-7.041,26.322-11.02s-1.839,9.49-33.063,0c-31.224-9.49-34.899-18.673-25.103-31.531
			c9.796-12.857,6.734-25.408,6.428-27.551c-0.306-2.143-2.755-19.592,13.775-17.143s24.183-2.755,24.183-2.755
			s-18.673,5.693-18.98-7.868S345,210.69,367.959,201.812C390.918,192.934,397,195.41,397,195.41V188.037z"/>
		<path fill="#E23F2C" d="M380.244,201.809c-0.909,0.11-16.531,13.472-16.531,19.289c0,5.816,5.879,15.053,10.44,10.588
			c4.56-4.465,16.499-19.465,16.499-19.465S390.346,200.582,380.244,201.809z"/>
		<path fill="#E23F2C" d="M393.713,217.292l4.898,6.867c0,0-3.367,6.393-11.939,8.707c-8.571,2.314-9.49,2.059-9.49,2.059
			S390.346,223.894,393.713,217.292z"/>
		<path fill="#E23F2C" d="M375.04,247.73c-0.918,0,30.918-16.837,31.224-9.796s4.592,20.51,0,26.939
			c-4.592,6.429-7.653,14.694-15.612,8.878"/>
		<path fill="#B22626" d="M202.829,59.208c0,0,25.131-34.645,51.431-39.921s50.394-5.804,62.704,6.859s24.093,40.449,32.183,46.604
			c8.09,6.155,16.18,3.869,20.928,0s11.607,0,8.09,4.924c-3.517,4.924-7.035,16.004-21.104,19.521s-24.797,4.572-32.007,4.045
			c-7.21-0.528-20.752-2.462-26.38-5.628s-37.283-14.421-49.242-15.124c-11.959-0.703-36.446-3.341-39.854-7.386
			C206.171,69.057,202.829,59.208,202.829,59.208z"/>
		<path fill="#56321C" d="M147.256,336.446c-9.811,3.795-30.424,17.335-30.776,22.786c-0.352,5.452,9.145,28.314,47.307,16.355
			c38.162-11.959,38.616-10.2,38.741-16.18c0.125-5.979-2.513-25.324-2.513-25.324s-32.711-11.431-38.69-11.431
			c-5.979,0-10.728,1.759-10.728,1.759S155.698,333.181,147.256,336.446z"/>
		<path fill="#B22626" d="M158.632,270.308c0,0-14.717,17.523-20.169,21.217c-5.452,3.693-11.431,5.276-12.838,5.276
			c-1.407,0,1.935,5.803,6.859,7.386c4.924,1.583,14.421,2.286,12.486,4.748c-1.934,2.462-4.931,6.859-3.081,8.441
			c1.85,1.583,3.257-2.462,8.533-2.462c5.276,0,5.1,2.99,6.683,4.397c1.583,1.407,3.341,2.462,7.21,0.703s10.904-4.397,13.717-1.583
			c2.814,2.814,7.386,6.859,9.848,6.859s11.783,4.045,36.931,0c25.149-4.045,48.187-6.331,65.949-18.642
			s33.942-28.138,29.369-30.073c-4.572-1.935-16.248-10.983-18.114-12.486c-1.866-1.504-13.366-1.934-32.183,6.331
			S158.632,270.308,158.632,270.308z"/>
		<path fill="#FFFFFF" d="M125.301,302.428c4.219,0.134-2.49,7.562,1.907,9.497s9.497,4.045,12.135,7.562
			c2.638,3.517,0.703,7.464,8.09,7.601c7.386,0.137,13.014-4.182,24.093,0c11.079,4.182,7.562,7.699,13.717,8.754
			c6.155,1.055,11.783,0.879,22.335-1.759c10.552-2.638,16.355,2.462,23.214,1.407c6.859-1.055,17.411-14.421,24.445-11.959
			c7.035,2.462,9.321,6.683,15.3,4.924s23.038-14.245,25.5-13.717c2.462,0.528,16.531-6.331,17.586-9.673
			c1.055-3.341,1.231-11.607,6.507-11.607s14.245-13.542,8.793-16.883c-5.452-3.341-7.035-3.166-7.035-7.035
			c0-3.869-5.803-4.665-7.562-1.893c-1.759,2.772-6.331,1.013-6.331,1.013s4.535,3.298,6.001,4.273
			c1.466,0.974,3.847,2.059,2.792,3.817c-1.055,1.759-6.331,1.759-7.035,7.914s-13.542,12.838-15.828,13.014
			c-2.286,0.176-9.145,3.166-10.904,7.738c-1.759,4.572-7.21,6.683-9.673,6.331c-2.462-0.352-13.366,0.879-15.652,1.759
			c-2.286,0.879-10.2,4.397-12.486,5.452c-2.286,1.055-12.838,4.748-19.345,3.341c-6.507-1.407-11.607-3.166-19.697-2.11
			c-8.09,1.055-19.873,2.99-21.983,0.703c-2.11-2.286-10.376-9.145-15.652-6.331c-5.276,2.814-11.079,1.231-12.662-0.352
			c-1.583-1.583-6.859-2.11-8.09-2.11s-0.703-4.924-0.703-5.628s-5.979-4.693-9.321-5.248c-3.341-0.555-7.003-2.406-7.035-4.072
			c-0.031-1.667,1.055-4.748-1.055-4.748c-2.11,0-10.904,1.055-10.024,3.693C120.525,298.735,121.209,302.298,125.301,302.428z"/>
		<path fill="#B22626" d="M322,225.13v2.659c0,0-6.788,11.414-19.93,20.457c-2.651,1.825-5.52,3.553-8.678,5.073
			c-18.803,9.04-22.082,10.636-33.143,15.954c-11.061,5.318-27.634,14.361-54.182,10.636c-21.932-3.076-41.968-8.776-51.391-13.332
			c-1.984-0.958-3.493-1.865-4.456-2.685c-5.529-4.725-19.842-4.727-18.214-29.722c1.628-24.995,18.221-84.394,40.343-85.808
			c22.122-1.414,106.624-13.646,125.428-6.202C316.584,149.608,336,207.181,322,225.13z"/>
		<path fill="#F7A192" d="M179.972,123.299c0,0-10.293-13.398-1.324-22.763s15.168-9.101,17.279-7.914
			c2.11,1.187-2.242-0.659-2.11-1.583s5.408-14.113,5.408-14.113s13.297,13.454,15.881,13.717
			c2.584,0.264,30.283-9.101,36.614-13.322c6.331-4.221,58.387,18.29,62.608,21.983s6.507,5.022,3.341,9.458
			c-3.166,4.436-5.804,4.436-8.441,4.436c-2.638,0-9.497,6.331-12.135,16.355c-2.638,10.024-7.914,20.425-23.214,21.028
			c-15.3,0.603-88.635-0.744-93.384-5.346c-4.748-4.602-5.798-8.747-5.798-8.747"/>
		<circle opacity="0.5" fill="#FF958D" cx="181.554" cy="114.449" r="8.259"/>
		<path fill="#B22626" d="M106.849,156.829c0,0-21.146,11.226-19.406,23.757c1.74,12.531,9.739,21.973,9.739,21.973
			s-0.624,3.503,3.205,7.68c3.829,4.177,5.25,9.409,25.091,3.144C145.32,207.117,145,190.884,145,186.649s0-13.982,0-13.982
			l-25.446-23.092L106.849,156.829z"/>
		<path fill="#FFFFFF" d="M190.706,123.61c0,0-13.821-1.382-15.203-7.5c-1.382-6.118-2.995-9.473,1.152-9.868
			c4.146-0.395-10.826-0.197-8.984,7.895s-1.843,5.131-1.382,9.473c0.461,4.342,3.686-6.908-6.219-6.71s-14.742,1.87-17.276-1.532
			c-2.534-3.402-0.461-6.56,1.382-6.757c1.843-0.197-8.113,8.289-2.559,10.263c5.554,1.974,9.47,11.25,12.004,12.434
			c2.534,1.184-4.837-4.737-4.377,4.539s6.91,18.552,6.91,19.539s-8.984-12.039-9.214-15c-0.23-2.96-4.146,5.435,0,15.053
			c4.146,9.618,6.68,10.21,6.68,10.21s0.921,6.908-2.995,6.908c-3.916,0-19.119,5.329-19.81,18.947
			c-0.691,13.618-2.073,15-2.073,15.789c0,0.789,8.062-16.381,12.669-17.171c4.607-0.789,6.91,0,6.91,0s-11.287,7.105-14.051,14.408
			c-2.764,7.302-2.995,15.789-2.995,15.789s-16.585,10.263-17.507,17.763c-0.921,7.5,0,10.658,0,11.447
			c0,0.789-2.995-9.079,8.753-17.96c11.748-8.881,11.748-8.881,11.748-8.881s-16.124,8.487-14.973,21.907
			c1.152,13.421,1.152,13.421,1.152,13.421s2.073-14.802,16.585-15.592c14.512-0.789,14.512-0.789,14.512-0.789
			s0,10.46-5.298,12.631s-19.349,3.158-13.591-2.763c5.759-5.921,7.141-2.368,7.141-2.368s-18.428-5.329-12.208,10.855
			c6.219,16.184,24.443,10.065,24.443,10.065s14.256-7.5,15.638-5.724c1.382,1.776,7.832,12.631,11.517,13.618
			s18.428-3.75,23.496,1.579c5.068,5.329,5.068,8.487,5.068,9.473s8.062-0.592,5.759-7.105c-2.303-6.513,7.141-9.276,10.135-8.881
			c2.995,0.395,32.018,1.382,40.311-6.316c8.293-7.697,17.276-14.802,17.276-14.802s-28.563,11.052-33.861,0.395
			c-5.298-10.658,4.607-14.408,11.978-7.5c7.371,6.908,14.282,24.473,14.282,24.473s10.596-18.157,5.759-29.407
			c-4.837-11.25,4.607,4.342,8.293,3.355c3.686-0.987,7.141-5.526,12.439-3.947c5.298,1.579,13.591,2.566,14.051-4.145
			c0.461-6.71,0.461-6.71,0.461-6.71s-5.989,8.289-14.282,1.184c-8.293-7.105-17.276-10.263-10.135-11.842
			s11.057,6.118,11.748,8.092s4.837,3.553,4.837,3.553s2.764-9.868,4.607-13.026c1.843-3.158,3.225-20.526-9.444-24.868
			c-12.669-4.342-16.815-10.263-16.815-10.263s18.889,15.986,29.485,1.974s15.433-22.499,15.433-22.499
			s-15.664,19.934-26.951,13.618c-11.287-6.316,12.9,1.579,19.349-17.565s4.146-22.302,4.146-23.091
			c0-0.789-1.152,12.829-17.507,16.579c-16.355,3.75,5.759-5.921,5.759-5.921s-5.989,6.118-10.135-0.789
			c-4.146-6.908,7.371-2.566,12.669-6.71c5.298-4.145,17.276-18.355,3.686-18.552c-13.591-0.197-13.591-0.197-13.591-0.197
			s23.035,0.789,16.124,5.329s-26.72,13.618-34.783,9.079c-8.062-4.539,5.298,0,7.141-4.145c1.843-4.145,5.298-14.802,0.23-19.736
			c-5.068-4.934-8.523-2.483-8.523-2.483s7.832,6.232,3.686,9.982c-4.146,3.75-19.81,11.25-26.029,10.066
			c-6.219-1.184-19.58-3.75-25.569-3.75c-5.989,0-13.539,4.342-18.057,5.131s-1.984-0.592-16.956-1.184
			C189.784,125.781,190.706,123.61,190.706,123.61z"/>
		<path fill="#FFFFFF" d="M194.06,256.323c0,0-5.144,4.72-3.957,9.68c1.187,4.96,3.379,1.599,3.957,6.821
			c0.578,5.221,3.434,2.048,4.127,7.961c0.693,5.913-1.808,5.609,0,16.688s6.501,5.144,3.363,17.014
			c-3.138,11.87,1.215,12.266,3.985,12.266c2.77,0,9.249,2.762,9.571-0.202c0.321-2.964-2.448-17.208-2.448-17.208
			s1.583-5.159,0-8.119s-3.387-6.934-3.078-9.101s2.066-8.751,0-11.79c-2.066-3.039-2.357-7.392-1.618-10.953
			c0.739-3.561,3.613-7.366,0-10.014"/>
		<path fill="#FFFFFF" stroke="#F2F2F2" stroke-miterlimit="10" d="M193.948,90.116c0,0-10.112-4.353-11.167-6.287
			c-1.055-1.935-1.407-1.935,0-1.935c1.407,0-3.341-6.683-2.11-8.969c1.231-2.286,1.759-1.759,2.638-0.703s-1.407-6.331-0.703-9.321
			s3.341-3.166,5.804-1.055c2.462,2.11,3.517,3.166,3.517,3.166s-3.166-8.793-0.352-7.914c2.814,0.879,4.257,2.286,6.613,2.462
			c2.356,0.176-1.828-2.286,0-3.166c1.828-0.879,4.29,1.759,6.049,2.11c1.759,0.352,2.596-2.462,5.343-1.583
			c2.747,0.879,3.734,1.231,5.527,1.231s7.245-2.819,9.003-1.937c1.759,0.882,2.286,3.696,5.979,4.047
			c3.693,0.352,11.255,2.462,14.773,1.935c3.517-0.528,6.155-2.286,7.738-1.759s2.286,2.462,5.1,2.814
			c2.814,0.352,9.848,4.572,13.366,6.683s4.397,3.476,6.859,3.145s4.872-0.159,6.331,2.68c1.46,2.839,18.817,14.575,21.807,15.454
			s7.035,0.703,9.145,2.99c2.11,2.286,4.748,5.276,7.21,5.628c2.462,0.352,4.323,0.879,4.323,0.879s4.118,1.583-2.213,3.869
			c-6.331,2.286-13.717,7.21-17.762,4.748c-4.045-2.462-23.566-20.752-30.073-19.873c-6.507,0.879-32.887-1.055-38.69-1.583
			c-5.804-0.528-17.913,1.551-25.84,2.622C204.236,91.567,196.201,91.127,193.948,90.116z"/>
		<path fill="#56321C" d="M305.711,252.306c-0.063,3.788,0.174,12.662-30.426,26.205c-30.6,13.541-66.827,13.013-93.03,5.803
			c-15.944-4.387-23.837-12.251-27.572-17.738c9.423,4.556,29.463,10.256,51.395,13.332c26.548,3.725,43.131-5.318,54.192-10.636
			c11.061-5.318,14.358-6.914,33.162-15.954c3.158-1.519,6.065-3.247,8.716-5.073l1.981-0.161
			C304.128,248.085,305.771,248.521,305.711,252.306z"/>
		<path fill="#8C1B24" d="M199.111,152.928c0,0,6.124-4.13,6.41-5.358c0.286-1.228,0.956-1.786,0.956-1.786s6.027,4.353,6.139,5.134
			c0.112,0.781,0,1.904,0,1.904s-3.251,1.777-5.805,1.61C204.258,154.265,202.348,154.602,199.111,152.928"/>
		<path fill="#333333" d="M137.232,129.026c0,0-7.4-18.466-5.349-20.444c2.051-1.978,7.723-5.144,10.097-5.144
			s13.585-5.54,15.828,3.034c2.242,8.573,12.313,36.8,11.894,37.987s-4.376,5.07-8.861,5.107
			c-4.485,0.037-18.466-6.953-19.653-10.383C140.002,135.753,137.232,129.026,137.232,129.026z"/>
		<path fill="#CCCCCC" d="M144.243,111.415l-0.401,0.765c0,0-2.566,8.757,1.698,10.345c4.264,1.588,4.6,0.503,4.6,0.503
			s-3.938-2.478-4.479-4.859c-0.541-2.381-0.226-5.692-0.718-5.898c-0.491-0.205,0.124-1.298,0.059-1.363
			c-0.065-0.066-0.397-0.697-0.397-0.697L144.243,111.415z"/>
		<path fill="#B22626" d="M131.883,148.581c0,0-3.752-5.309-1.114-10.19c2.638-4.88,3.957-9.555,3.034-13.087
			c-0.923-3.532-2.77-6.698-1.055-7.357c1.715-0.659,4.485,11.079,4.485,11.079s3.429,0.396,4.616,0.264
			c1.187-0.132,9.275,2.902,11.826-1.319c2.551-4.221,10.201-6.859,11.124-2.11c0.923,4.748,4.748,23.346-1.847,27.962
			s-13.19,9.629-16.487,8.705c-3.297-0.923-14.581-8.573-14.581-8.573s-1.645-6.227-2.171-8.719
			c-0.526-2.492,4.648-2.756,4.648-2.756"/>
		<path fill="#F7A192" d="M199.111,152.928c0,0-4.13,2.79-3.237,4.13s9.487,7.032,12.947,5.023s6.474-6.697,6.474-6.697
			l-1.563-2.456c0,0-1.451-0.558-3.46,0.893s-9.711-0.112-9.711-0.112L199.111,152.928z"/>
		<path fill="#FFFFFF" d="M129.714,145.777c-0.123-2.211,1.356-5.893-0.251-5.118c-0.119,0.057-0.254,0.139-0.409,0.247
			c-2.242,1.574-13.586,4.607-13.981,9.883c-0.396,5.276,3.561,14.509,6.727,14.245c3.166-0.264,6.727,1.319,7.254,2.902
			c0.528,1.583,2.902,5.408,5.408,5.012c2.506-0.396,8.001,1.527,8.837,5.378s9.841,0.555,10.156-2.872
			c0.315-3.427,0.791-13.058-2.638-14.113c-3.429-1.055-3.957-0.965-6.727-3.714c-2.77-2.749-3.166-5.519-6.727-5.914
			s-6.199-1.998-6.331-3.769"/>
		<path fill="#B22626" d="M293.743,139.776c0,0,7.043-20.773,18.122-19.191c11.079,1.583,26.116,11.607,26.116,11.607
			s-6.067,7.65-12.398,11.343s-2.142,11.323-17.674,9.251c-15.532-2.073-14.725-11.879-14.725-11.879"/>
		<path fill="#563320" d="M173.56,111.967c0,0,2.458-12.675,8.181-12.177c5.723,0.497,13.319,10.654,13.319,10.654
			s-8.2-6.834-13.169-6.249C176.922,104.781,173.56,111.967,173.56,111.967z"/>
		<path fill="#FFFFFF" d="M332.441,134.038c0,0,3.693-0.791,8.705,0c5.012,0.791,10.288,1.055,10.816,0
			c0.528-1.055,3.693,6.567,5.012,11.197c1.319,4.63,6.595,18.084-2.374,19.667c-8.969,1.583-12.135,0-12.135,0s3.957,3.429,0,7.122
			s-10.552,5.54-12.926,4.485c-2.374-1.055-4.479,6.242-6.46,6.418s-1.454,0.351-9.895,0s-11.154-9.848-10.589-11.167
			s0.754-6.595,0-7.386c-0.754-0.791-2.412-6.859,0-7.914c2.412-1.055,7.424-3.22,10.325-3.325c2.902-0.105,7.183-1.214,7.812-3.561
			c0.629-2.347,3.473-11.052,6.008-11.316C329.275,137.995,332.441,134.038,332.441,134.038z"/>
		<path fill="#B22626" d="M356.208,164.432c0,0,23.715,26.059,22.924,28.169c-0.791,2.11-14.036,29.281-19.416,32.711
			c-5.38,3.429-12.767,9.233-27.539,5.804c-14.773-3.429-20.576-5.54-19.521-18.466c1.055-12.926,2.414-34.353,2.922-34.323
			c0.508,0.03,26.623-17.423,32.163-15.687"/>
		<path fill="#ECC528" d="M191.865,279.47c0,0,0.296,5.568,0.77,7.819c0.474,2.251,2.37,4.324,4.147,4.324
			s11.433,0.711,12.795,0.415c1.362-0.296,4.147-0.711,3.791-6.694c-0.355-5.983-1.362-8.945-3.199-8.945
			c-1.836,0-6.99-0.474-10.011-0.592c-3.021-0.118-8.545-0.64-8.293,3.317C192.116,283.073,191.865,279.47,191.865,279.47z"/>
		<path fill="#503218" d="M194.945,280.122c0,0,0.474,4.621,0.77,6.635s2.014,2.31,3.317,2.31c1.303,0,5.568,0.237,7.583,0
			c2.014-0.237,3.377-0.652,3.199-3.14c-0.178-2.488,0.178-6.694-1.303-6.812c-1.481-0.118-6.398-0.77-8.353-0.652
			S194.691,277.741,194.945,280.122z"/>
		<path fill="#ECC528" d="M193.879,283.084c0,0,5.865-0.652,6.102,0c0.237,0.652-4.621,0.635-5.272,0.821
			C194.057,284.091,193.879,283.084,193.879,283.084z"/>
		<g>
			<path fill="#603813" d="M183.964,98.82c3.494,0,6.336,2.842,6.336,6.336c0,3.494-2.842,6.336-6.336,6.336
				s-6.336-2.842-6.336-6.336C177.628,101.662,180.471,98.82,183.964,98.82 M183.964,95.82c-5.156,0-9.336,4.18-9.336,9.336
				c0,5.156,4.18,9.336,9.336,9.336s9.336-4.18,9.336-9.336C193.3,100,189.121,95.82,183.964,95.82L183.964,95.82z"/>
		</g>
		<path fill="#F7A192" d="M193.3,105.156c0,0-7.438,3.274-6.759,10.495s5.358,10.529,11.519,10.265
			c6.16-0.264,15.937-7.102,15.937-7.102s1.423-9.571-3.971-12.341C204.632,103.702,197.55,101.974,193.3,105.156z"/>
		<circle opacity="0.5" fill="#FF958D" cx="226.431" cy="116.888" r="8.259"/>
		<circle opacity="0.5" fill="#FF958D" cx="194.724" cy="114.449" r="8.259"/>
		<path fill="#D96248" d="M187.265,112.935c0,0-3.781,10.112,3.166,12.486c6.947,2.374,11.959,5.364,19.521-2.374
			c0.662-0.678-3.212,2.964-8.09,2.814c-5.716-0.176-13.981-2.902-14.157-6.067C187.529,116.628,187.265,112.935,187.265,112.935z"
			/>
		<path fill="#FCE6E3" d="M189.727,106.34c0,0,3.869-4.748,8.969-4.748c5.1,0,11.607,2.286,12.135,4.309
			c0.528,2.022-0.528-0.264-8.002-1.319c-7.474-1.055-13.893,4.045-14.333,4.045C188.057,108.626,189.727,106.34,189.727,106.34z"/>
		<path fill="#563320" d="M213.741,112.032c0,0,7.288-13.611,13.42-10.026c6.132,3.585,14.666,18.572,14.666,18.572
			s-11.492-14.285-16.541-14.724C220.237,105.415,213.741,112.032,213.741,112.032z"/>
		<path fill="#FCFCFC" stroke="#F2F2F2" stroke-miterlimit="10" d="M211.378,98.769c0,0,6.305-13.924,11.261-15.888
			s9.686-2.162,12.485-3.227s-1.971,4.266,0.91,3.521c2.881-0.745,8.312-3.514,8.312-3.514l-5.439,5.383
			c0,0,3.809,1.526,7.011,0.699c3.201-0.827-4.129,5.165-0.266,6.899c3.863,1.734,7.737,4.83,7.737,4.83s-19.115-6.57-26.128-4.637
			C220.247,94.769,211.378,98.769,211.378,98.769z"/>
		<path fill="#FCFCFC" stroke="#F2F2F2" stroke-miterlimit="10" d="M199.977,99.424c0,0-5.16-14.387-9.942-16.745
			c-4.782-2.358-9.48-2.937-12.183-4.224c-2.703-1.287,1.62,4.411-1.191,3.436c-2.812-0.975-8.001-4.174-8.001-4.174l4.986,5.805
			c0,0-3.92,1.214-7.044,0.13c-3.124-1.083,3.698,5.482-0.292,6.898c-3.99,1.416-8.102,4.19-8.102,4.19s19.583-5.005,26.417-2.512
			S199.977,99.424,199.977,99.424z"/>
		<g>
			<path fill="#603813" d="M227.152,98.406c5.135,0,9.313,4.178,9.313,9.313s-4.178,9.313-9.313,9.313s-9.313-4.178-9.313-9.313
				S222.016,98.406,227.152,98.406 M227.152,95.406c-6.8,0-12.313,5.513-12.313,12.313s5.513,12.313,12.313,12.313
				c6.8,0,12.313-5.513,12.313-12.313S233.952,95.406,227.152,95.406L227.152,95.406z"/>
		</g>
		<polygon fill="#623E26" points="239.67,105.462 294.739,99.609 296.741,102.535 238.98,111.119 		"/>
		<path fill="#623E26" d="M214.839,108.422c0,0-5.453-4.925-6.157-4.222c-0.704,0.704,3.156-1.574,4.749-0.069
			s2.111,1.882,2.111,1.882L214.839,108.422z"/>
	</g>
	<path fill="#FFFFFF" stroke="#E6E6E6" stroke-width="2" stroke-miterlimit="10" d="M371.679,68.089c0,0-9.78-27.704-6.077-25.335
		c3.703,2.37,11.997,9.034,10.071,4.295s-1.925-21.772,6.665-15.551c8.59,6.22,13.478,8.442,15.255,5.924
		c1.777-2.518,2.073,11.755,6.665,10.321c4.591-1.434,8.738-5.082,9.034,0s0.444,9.377-3.703,11.451
		c-4.147,2.073-4.443-0.889-4.147,5.628c0.296,6.517,3.999,11.7-2.37,11.997c-6.369,0.296-13.922,0.889-16.884,0
		S371.24,74.762,371.679,68.089"/>
</g>
<g>
	<path fill="#F5274D" d="M363.598,354.997c0,0,5.263,0.862,6.359,5.906s1.027,6.14,1.027,6.14s4.938-0.877,5.793,0
		c0.855,0.877,0.855,0.877,0.855,0.877s2.166-11.621,3.495-10.744c1.329,0.877,5.203,10.744,5.203,10.744s2.914-1.973,5.002-0.877
		c2.088,1.096,3.654,0.877,3.654,0.877s-2.819-8.771,0-10.964c2.819-2.193,5.113-6.14,5.113-6.14s-36.719,2.631-36.5,1.535
		C363.817,351.255,363.598,354.997,363.598,354.997z"/>
	<path fill="#8DAF36" d="M356.919,306.153c0,0-8.985,10.965-9.972,16.117c0,0,6.689,3.728,7.017,5.263s0.33,1.535,0.33,1.535
		l-1.644,13.593c0,0,1.864,10.195,5.92,10.962s22.801,2.412,31.022,0.439s12.168-2.085,15.566-6.141
		c3.398-4.056,3.946-5.921,3.946-5.921h1.081l-1.52-13.805c0,0,9.208-8.826,9.208-9.265s-7.783-22.993-9.756-24.309
		S362.721,293.322,356.919,306.153z"/>
	<path fill="#56321C" d="M353.404,331.966c0,0,11.509,1.601,23.788,1.601c12.279,0,31.532-2.631,31.532-2.631l0.688,4.825
		c0,0-19.941,5.261-31.343,4.603s-25.114-4.686-25.114-4.686L353.404,331.966z"/>
	<path fill="#56321C" d="M348.014,318.14"/>
	<polygon fill="#7E9B2D" points="353.585,326.718 356.305,312.151 351.931,325.072 	"/>
	<path fill="#7E9B2D" d="M406.949,306.231c0,0,0.329,11.62,0.877,16.552s0.548,4.933,0.548,4.933l2.168-2.105"/>
	<path fill="#7E9B2D" d="M352.358,342.077c0,0,0.207,0.067,0.597,0.182c2.597,0.77,13.324,3.704,25.334,3.514
		c13.814-0.219,31.605-4.145,31.605-4.145l-1.169,2.077c0,0-19.691,4.042-30.436,4.042c-10.744,0-25.314-3.059-25.314-3.059"/>
	<path fill="#F5274D" d="M360.361,298.339c0,0-2.27,0.331-3.398,4.275c-1.128,3.944-0.877,10.852-0.877,10.852
		s5.042-5.919,9.427-7.564s11.729,0,11.729,0s12.387-4.823,16.772,0.548c4.385,5.371,5.48,7.783,6.084,8.002
		s3.015-3.069,3.782-7.344s-0.579-8.879-0.892-9.975c-0.314-1.096-12.81,7.673-24.211,7.125S363.43,301.189,360.361,298.339z"/>
	<path fill="#ECC528" d="M370.989,333.592c0,0,0.211,3.967,0.549,5.57c0.338,1.604,1.688,3.081,2.954,3.081
		c1.266,0,8.144,0.506,9.115,0.295s2.954-0.506,2.701-4.768c-0.253-4.262-0.971-6.372-2.279-6.372c-1.308,0-4.979-0.338-7.132-0.422
		c-2.152-0.084-6.087-0.456-5.908,2.363S370.989,333.592,370.989,333.592z"/>
	<path fill="#503218" d="M373.183,334.056c0,0,0.338,3.291,0.549,4.726c0.211,1.435,1.435,1.646,2.363,1.646
		c0.928,0,3.967,0.169,5.401,0s2.405-0.464,2.279-2.237s0.127-4.768-0.928-4.853c-1.055-0.084-4.557-0.549-5.95-0.464
		C375.504,332.959,373.002,332.361,373.183,334.056z"/>
	<path fill="#ECC528" d="M372.424,336.166c0,0,4.178-0.464,4.346,0c0.169,0.464-3.291,0.453-3.756,0.585
		C372.55,336.884,372.424,336.166,372.424,336.166z"/>
	<path fill="#B3233C" d="M368.946,358.46c0,0,1.938-1.256,4.679-1.146s6.069,2.063,6.069,2.063l-1.037,1.884
		c0,0-7.424-1.884-8.803-0.778l-0.907-1.199l1.512,4.057c0,0,0.402-1.532,2.716-1.423c2.314,0.11,5.306,1.96,5.306,1.96
		l-0.443,2.015c0,0-2.146-1.564-3.717-1.564s-3.337,0.658-3.337,0.658"/>
	<path fill="#B3233C" d="M383.27,358.46c0,0,1.938-1.256,4.679-1.146s6.069,2.063,6.069,2.063l-1.037,1.884
		c0,0-7.424-1.884-8.804-0.778l-0.907-1.199l1.512,4.057c0,0,0.402-1.532,2.716-1.423c2.314,0.11,5.306,1.96,5.306,1.96
		l-0.443,2.015c0,0-2.146-1.564-3.717-1.564s-3.337,0.658-3.337,0.658"/>
	<path fill="#FAE4CC" d="M414.327,286.076c-0.884-0.999-0.911-2.426-0.911-2.426S415.367,283.769,414.327,286.076z"/>
	<path fill="#FAE4CC" d="M439.176,244.954c-0.438,24.664-11.181,36.942-18.415,40.778c-3.682,1.953-5.518,1.378-6.434,0.344
		c1.04-2.307-0.911-2.426-0.911-2.426s0.026,1.427,0.911,2.426c-0.686,1.521-2.673,3.993-7.378,8.01
		c-11.839,10.107-26.743,10.194-35.535,9.398c-8.793-0.796-16.754-9.749-17.296-18.08c-0.169-2.592,0-4.525,0.314-5.96
		c-1.882-3.23-4.425-7.918-6.786-13.333c-4.495-10.305,2.741-24.665,2.741-24.665s0,0-0.11,4.933
		c-0.081,3.656,4.896,8.397,7.478,10.605c2.567-7.025,5.896-14.003,5.896-14.003l0.658-3.398c0,0,14.25-2.192,36.832-3.762
		c22.581-1.569,16.735,22.726,16.735,22.726s-3.033,4.495,3.545,3.837C427.996,261.726,439.176,244.954,439.176,244.954z"/>
	<path fill="#56321C" d="M386.329,367.919c0,0-1.301,7.455,3.442,7.894s15.909,1.754,10.326-12.718c0,0,0.181,6.379-2.92,6.479
		c-3.101,0.1-2.192-1.655-2.192-1.655S393.054,364.63,386.329,367.919z"/>
	<path fill="#56321C" d="M377.631,367.919c0,0-3.429-2.412-6.648-0.877c-3.219,1.535-11.771,3.947-11.332,0.877
		c0.439-3.07,0.439-3.07,0.439-3.07s-7.178,4.824-4.027,7.455c3.15,2.631,9.15,7.947,14.921,4.522s8.241-3.092,7.054-10.933
		L377.631,367.919z"/>
	<path fill="#FAE4CC" d="M348.906,324.541c0,0-3.452,14.224,0,15.88s3.452,1.655,3.452,1.655l1.936-13.008
		C354.294,329.068,355.265,324.36,348.906,324.541z"/>
	<path fill="#FAE4CC" d="M416.792,320.253c0,0,1.512,8.042-2.16,13.053c-3.672,5.011-4.739,5.011-4.739,5.011l-1.227-10.016"/>
	<path d="M388.458,276.775l6.578,1.096c0,0-4.166-1.155-4.385-3.867c-0.219-2.712,1.747-9.07,6.355-8.632
		c4.608,0.439,6.801,3.947,6.801,3.947s-0.439-8.552-4.824-7.455c-4.385,1.096-7.894,2.193-7.894,2.193s0-1.51,2.851-2.29
		s10.306-2.753,11.183,2.728c0.877,5.482-2.631,13.156-1.096,13.376s1.535,0.219,1.535,0.219S393.721,279.406,388.458,276.775z"/>
	<path d="M358.418,266.031c0,0,5.92-10.964,12.06-7.674c6.14,3.289,6.14,3.289,6.14,3.289S365.435,255.286,358.418,266.031z"/>
	<path d="M360.611,276.775c0,0,16.665,3.888,16.884-2.77s-2.631-12.798-8.442-10.167c-5.811,2.631-7.346,7.616-4.276,10.167
		s5.482,2.77,5.482,2.77S365.216,277.652,360.611,276.775z"/>
	<path fill="#7FCCC3" d="M393.742,267.473c0,0-1.267,1.885-1.51,3.086c-0.244,1.201,2.972,1.64,2.972,1.64s0-1.559,0.682-1.949
		c0.682-0.39,2.68-1.315,3.508-0.414c0.828,0.901,2.241,3.094,1.267,3.727c-0.974,0.633-3.947,3.216-4.97,1.608
		c-1.023-1.608-1.023-2.29-1.023-2.29s-2.728-2.631-2.826-0.828c-0.097,1.803-0.331,4.6,2.196,5.457s9.474,0.154,9.612-0.819
		c0.138-0.973,1.093-6.239,0.157-7.371C402.872,268.188,398.566,263.429,393.742,267.473z"/>
	<path fill="#7FCCC3" d="M366.409,265.792c0,0-1.267,1.885-1.51,3.086c-0.244,1.201,2.972,1.64,2.972,1.64s0-1.559,0.682-1.949
		s2.68-1.315,3.508-0.414c0.828,0.901,2.241,3.094,1.267,3.727c-0.974,0.633-3.946,3.216-4.97,1.608
		c-1.023-1.608-1.023-2.29-1.023-2.29s-2.728-2.631-2.826-0.828c-0.097,1.803-0.331,4.6,2.196,5.457
		c2.527,0.857,9.474,0.154,9.612-0.819s1.093-6.239,0.157-7.371C375.539,266.507,371.233,261.748,366.409,265.792z"/>
	<ellipse fill="#FFFFFF" cx="369.138" cy="267.955" rx="1.463" ry="1.663"/>
	<ellipse fill="#FFFFFF" cx="368.25" cy="271.477" rx="0.743" ry="0.845"/>
	<path fill="#56321C" d="M386.58,287.888c0,0-0.044,2.581,1.878,3.166c1.922,0.585,4.845,0,4.845,0s-2.193,2.128-5.847,0.26
		c0,0-8.77,4.564-13.593,3.248s-4.823-1.315-4.823-1.315s9.005,1.356,13.593-0.877C387.222,290.137,386.58,289.838,386.58,287.888z"
		/>
	<path fill="#56321C" d="M374.741,282c0,0-0.804,1.75,0,2.262c0.804,0.512,2.389,0.729,2.766,0.071s0.677-0.622,0.677-0.622
		S376,284.696,376,283.892c0-0.804,0-1.892,0-1.892H374.741z"/>
	<path fill="#56321C" d="M417.86,269.597c0,0,6.139-5.812,8.916-5.406c2.777,0.407,2.777,0.407,2.777,0.407
		S422.098,265.241,417.86,269.597z"/>
	<path fill="#56321C" d="M425.899,266.884c0,0,1.608,3.725,0,4.593c-1.608,0.868-1.608,0.868-1.608,0.868
		S427.293,269.046,425.899,266.884z"/>
	<path fill="#56321C" d="M347.992,255.828c0,0,2.193,0.292,2.631,1.315c0.439,1.023,0.439,1.023,0.439,1.023
		S349.6,255.828,347.992,255.828z"/>
	<circle opacity="0.7" fill="#FED2B7" cx="400.1" cy="286.106" r="7.454"/>
	<circle opacity="0.7" fill="#FED2B7" cx="363.632" cy="285.375" r="7.454"/>
	<ellipse fill="#FFFFFF" cx="396.618" cy="269.271" rx="1.463" ry="1.663"/>
	<ellipse fill="#FFFFFF" cx="395.729" cy="272.793" rx="0.743" ry="0.845"/>
	<path fill="#FFCC3E" d="M380.88,239.458c0,0-3.8,5.554-8.185,7.454s-5.993,3.216-5.993,3.216s8.283,6.963,12.882,6.963
		c0.476,0,0.912-0.075,1.296-0.239c4.093-1.754,15.786-14.672,15.786-14.672s-13.447,16.426-20.025,16.426
		c-6.577,0,11.986,2.485,16.955,1.315c4.97-1.169,9.062-2.339,9.355-12.278c0.292-9.939-12.716-15.932-13.155-16.224
		C389.357,231.126,380.88,239.458,380.88,239.458z"/>
	<path fill="#8DAF36" d="M360.051,249.616c0,0,1.608-7.016,5.262-8.185c3.654-1.169,25.725-6.87,39.611,7.308
		c13.886,14.178,13.886,16.494,13.886,16.494s-1.315,5.431,9.939-7.139c11.255-12.57,11.255-13.886,11.255-13.886
		s-2.923,19.394-3.654,21.025c-0.731,1.631,24.848-18.54,30.403-31.549c5.554-13.009,5.554-13.009,5.554-13.009
		s-16.371,5.116-30.987-6.431c-14.617-11.547-73.229-12.132-81.268,21.194C352.012,268.764,360.051,249.616,360.051,249.616z"/>
	<path fill="#F5274D" d="M357.712,256.486c0,0-3.8-5.116-3.069-8.478c0.731-3.362,5.993-13.447,18.563-14.178
		c12.57-0.731,21.048-6.285,34.495,9.208c13.447,15.494,18.774,17.293,15.526,20.778c-3.248,3.485-2.728,5.824-8.835-3.531
		c-6.106-9.355-40.894-23.094-48.787-13.447C357.712,256.486,357.712,256.486,357.712,256.486z"/>
	<ellipse fill="#FFFFFF" cx="471.808" cy="218.157" rx="8.88" ry="7.674"/>
</g>
<g>
	<path fill="#FFCC3E" d="M100.691,270.809c0,0-16.07,32.353-4.371,40.709c11.699,8.356,14.527,10.413,14.527,10.413
		s-12.225,7.456-30.796,4.371c-18.571-3.085-13.02-30.822-13.02-30.822"/>
	<g>
		<path fill="#F5274D" d="M36.702,349.761c0,0,4.629,0.758,5.593,5.194c0.964,4.436,0.903,5.4,0.903,5.4s4.343-0.771,5.095,0
			s0.752,0.771,0.752,0.771s1.905-10.221,3.074-9.45c1.169,0.771,4.576,9.45,4.576,9.45s2.563-1.736,4.399-0.771
			c1.836,0.964,3.214,0.771,3.214,0.771s-2.48-7.714,0-9.643s4.497-5.4,4.497-5.4s-32.296,2.314-32.103,1.35
			C36.895,346.469,36.702,349.761,36.702,349.761z"/>
		<path fill="#8DAF36" d="M30.827,306.8c0,0-7.903,9.644-8.77,14.175c0,0,5.883,3.279,6.172,4.629c0.289,1.35,0.29,1.35,0.29,1.35
			l-1.446,11.956c0,0,1.639,8.967,5.207,9.642s20.054,2.121,27.285,0.386c7.231-1.735,10.702-1.998,13.691-5.566
			c2.989-3.567,3.471-5.373,3.471-5.373h0.951l-1.337-11.977c0,0,8.099-7.681,8.099-8.066c0-0.386-6.845-20.183-8.581-21.34
			C74.124,295.46,35.931,295.515,30.827,306.8z"/>
		<path fill="#56321C" d="M27.736,329.504c0,0,10.123,1.408,20.923,1.408s27.734-2.314,27.734-2.314l0.605,4.244
			c0,0-17.539,4.627-27.567,4.049s-22.089-4.121-22.089-4.121L27.736,329.504z"/>
		<path fill="#56321C" d="M22.996,317.343"/>
		<polygon fill="#7E9B2D" points="27.896,324.889 30.288,312.076 26.44,323.441 		"/>
		<path fill="#7E9B2D" d="M74.831,306.869c0,0,0.289,10.22,0.771,14.559c0.482,4.339,0.482,4.339,0.482,4.339l1.907-1.851"/>
		<path fill="#7E9B2D" d="M26.816,338.397c0,0,0.182,0.059,0.525,0.16c2.284,0.677,11.719,3.258,22.282,3.091
			c12.15-0.193,27.798-3.646,27.798-3.646l-1.028,1.827c0,0-17.319,3.555-26.769,3.555s-22.265-2.691-22.265-2.691"/>
		<path fill="#F5274D" d="M33.855,299.927c0,0-1.997,0.291-2.989,3.76s-0.771,9.545-0.771,9.545s4.435-5.206,8.292-6.653
			s10.316,0,10.316,0s10.895-4.242,14.751,0.482c3.857,4.724,4.82,6.845,5.351,7.038c0.531,0.193,2.652-2.7,3.327-6.46
			c0.675-3.76-0.509-7.81-0.785-8.774c-0.276-0.964-11.267,6.749-21.294,6.267S36.555,302.434,33.855,299.927z"/>
		<path fill="#ECC528" d="M43.203,330.934c0,0,0.186,3.489,0.482,4.899c0.297,1.41,1.485,2.709,2.598,2.709s7.163,0.445,8.017,0.26
			s2.598-0.445,2.375-4.194c-0.223-3.749-0.854-5.604-2.004-5.604c-1.151,0-4.38-0.297-6.272-0.371
			c-1.893-0.074-5.354-0.401-5.196,2.078S43.203,330.934,43.203,330.934z"/>
		<path fill="#503218" d="M45.133,331.343c0,0,0.297,2.895,0.482,4.157c0.186,1.262,1.262,1.447,2.078,1.447s3.489,0.148,4.751,0
			c1.262-0.148,2.116-0.408,2.004-1.967c-0.111-1.559,0.111-4.194-0.817-4.268c-0.928-0.074-4.008-0.483-5.233-0.408
			C47.174,330.378,44.974,329.851,45.133,331.343z"/>
		<path fill="#ECC528" d="M44.465,333.198c0,0,3.674-0.408,3.823,0c0.148,0.408-2.895,0.398-3.303,0.515
			S44.465,333.198,44.465,333.198z"/>
		<path fill="#B3233C" d="M41.406,352.807c0,0,1.705-1.104,4.115-1.008c2.41,0.096,5.338,1.814,5.338,1.814l-0.912,1.657
			c0,0-6.529-1.657-7.743-0.684l-0.797-1.054l1.33,3.568c0,0,0.353-1.348,2.389-1.251c2.035,0.096,4.667,1.724,4.667,1.724
			l-0.39,1.772c0,0-1.887-1.375-3.27-1.375s-2.935,0.578-2.935,0.578"/>
		<path fill="#B3233C" d="M54.005,352.807c0,0,1.705-1.104,4.115-1.008c2.41,0.096,5.338,1.814,5.338,1.814l-0.912,1.657
			c0,0-6.529-1.657-7.743-0.684l-0.797-1.054l1.33,3.568c0,0,0.353-1.348,2.389-1.251s4.667,1.724,4.667,1.724l-0.39,1.772
			c0,0-1.887-1.375-3.27-1.375c-1.383,0-2.935,0.578-2.935,0.578"/>
		<path fill="#FAE4CC" d="M81.32,289.142c-0.778-0.879-0.801-2.134-0.801-2.134S82.235,287.112,81.32,289.142z"/>
		<path fill="#FAE4CC" d="M103.177,252.973c-0.386,21.693-9.834,32.492-16.197,35.866c-3.238,1.718-4.854,1.212-5.659,0.302
			c0.915-2.029-0.801-2.134-0.801-2.134s0.023,1.255,0.801,2.134c-0.604,1.338-2.351,3.512-6.489,7.045
			c-10.413,8.89-23.521,8.966-31.255,8.266s-14.735-8.574-15.212-15.902c-0.148-2.279,0-3.98,0.276-5.242
			c-1.655-2.841-3.892-6.964-5.969-11.727c-3.953-9.063,2.41-21.694,2.41-21.694s0,0-0.096,4.339
			c-0.071,3.216,4.306,7.385,6.577,9.328c2.258-6.179,5.185-12.317,5.185-12.317l0.579-2.989c0,0,12.534-1.928,32.395-3.308
			c19.861-1.38,14.719,19.988,14.719,19.988s-2.668,3.953,3.118,3.375C93.343,267.725,103.177,252.973,103.177,252.973z"/>
		<path fill="#56321C" d="M56.695,361.126c0,0-1.144,6.557,3.028,6.943c4.172,0.386,13.992,1.543,9.082-11.186
			c0,0,0.159,5.611-2.568,5.698c-2.727,0.088-1.928-1.455-1.928-1.455S62.61,358.233,56.695,361.126z"/>
		<path fill="#56321C" d="M49.045,361.126c0,0-3.016-2.121-5.847-0.771s-10.353,3.471-9.967,0.771c0.386-2.7,0.386-2.7,0.386-2.7
			s-6.313,4.243-3.542,6.557s8.048,6.99,13.124,3.977s7.248-2.719,6.204-9.616L49.045,361.126z"/>
		<path fill="#FAE4CC" d="M23.78,322.974c0,0-3.036,12.511,0,13.967s3.036,1.456,3.036,1.456l1.703-11.441
			C28.519,326.955,29.373,322.814,23.78,322.974z"/>
		<path fill="#FAE4CC" d="M83.488,319.202c0,0,1.33,7.074-1.899,11.481c-3.23,4.407-4.168,4.407-4.168,4.407l-1.08-8.81"/>
		<path d="M58.568,280.961l5.786,0.964c0,0-3.664-1.016-3.857-3.401c-0.193-2.385,1.537-7.978,5.59-7.592s5.982,3.471,5.982,3.471
			s-0.386-7.521-4.243-6.557s-6.943,1.929-6.943,1.929s0-1.328,2.507-2.014c2.507-0.686,9.064-2.422,9.836,2.4
			c0.771,4.821-2.314,11.572-0.964,11.764c1.35,0.193,1.35,0.193,1.35,0.193S63.197,283.275,58.568,280.961z"/>
		<path d="M32.147,271.511c0,0,5.207-9.643,10.607-6.75c5.4,2.893,5.4,2.893,5.4,2.893S38.318,262.061,32.147,271.511z"/>
		<path d="M34.075,280.961c0,0,14.657,3.42,14.85-2.437c0.193-5.856-2.314-11.256-7.425-8.942s-6.461,6.698-3.761,8.942
			c2.7,2.244,4.821,2.437,4.821,2.437S38.125,281.733,34.075,280.961z"/>
		<path fill="#7FCCC3" d="M63.215,272.78c0,0-1.114,1.658-1.328,2.714c-0.214,1.057,2.614,1.442,2.614,1.442s0-1.371,0.6-1.714
			c0.6-0.343,2.357-1.157,3.085-0.364c0.729,0.793,1.971,2.721,1.114,3.278s-3.471,2.828-4.371,1.414s-0.9-2.014-0.9-2.014
			s-2.4-2.314-2.485-0.729c-0.086,1.586-0.292,4.046,1.931,4.8c2.223,0.754,8.333,0.135,8.455-0.721
			c0.121-0.856,0.961-5.487,0.138-6.483C71.246,273.409,67.458,269.223,63.215,272.78z"/>
		<path fill="#7FCCC3" d="M39.175,271.301c0,0-1.114,1.658-1.328,2.714c-0.214,1.057,2.614,1.442,2.614,1.442s0-1.371,0.6-1.714
			c0.6-0.343,2.357-1.157,3.085-0.364c0.729,0.793,1.971,2.721,1.114,3.278c-0.857,0.557-3.471,2.828-4.371,1.414
			c-0.9-1.414-0.9-2.014-0.9-2.014s-2.4-2.314-2.485-0.729c-0.086,1.586-0.292,4.046,1.931,4.8c2.223,0.754,8.333,0.135,8.455-0.721
			c0.121-0.856,0.961-5.487,0.138-6.483C47.205,271.93,43.417,267.744,39.175,271.301z"/>
		<ellipse fill="#FFFFFF" cx="41.575" cy="273.204" rx="1.286" ry="1.463"/>
		<ellipse fill="#FFFFFF" cx="40.794" cy="276.301" rx="0.654" ry="0.744"/>
		<path fill="#56321C" d="M56.916,290.736c0,0-0.038,2.27,1.652,2.785c1.69,0.514,4.262,0,4.262,0s-1.928,1.871-5.142,0.229
			c0,0-7.714,4.014-11.956,2.857s-4.242-1.157-4.242-1.157s7.92,1.192,11.956-0.771C57.481,292.714,56.916,292.451,56.916,290.736z"
			/>
		<path fill="#56321C" d="M46.503,285c0,0-0.707,1.818,0,2.268c0.707,0.45,2.102,0.78,2.433,0.202s0.291-0.478,0.291-0.478
			S47,287.928,47,287.221c0-0.707,0-1.221,0-2.221H46.503z"/>
		<path fill="#56321C" d="M84.428,274.648c0,0,5.399-5.112,7.842-4.754c2.443,0.358,2.443,0.358,2.443,0.358
			S88.156,270.817,84.428,274.648z"/>
		<path fill="#56321C" d="M91.499,272.262c0,0,1.414,3.276,0,4.04s-1.414,0.763-1.414,0.763S92.725,274.163,91.499,272.262z"/>
		<path fill="#56321C" d="M22.976,262.538c0,0,1.928,0.257,2.314,1.157c0.386,0.9,0.386,0.9,0.386,0.9
			S24.391,262.538,22.976,262.538z"/>
		<circle opacity="0.7" fill="#FED2B7" cx="68.808" cy="289.168" r="6.557"/>
		<circle opacity="0.7" fill="#FED2B7" cx="36.732" cy="288.525" r="6.557"/>
		<ellipse fill="#FFFFFF" cx="65.745" cy="274.361" rx="1.286" ry="1.463"/>
		<ellipse fill="#FFFFFF" cx="64.963" cy="277.458" rx="0.654" ry="0.744"/>
		<path fill="#FFCC3E" d="M51.902,248.139c0,0-3.343,4.885-7.199,6.557s-5.271,2.828-5.271,2.828s7.285,6.124,11.331,6.124
			c0.418,0,0.802-0.066,1.14-0.21c3.6-1.543,13.884-12.905,13.884-12.905S53.959,264.98,48.174,264.98s10.542,2.186,14.913,1.157
			s7.971-2.057,8.228-10.799c0.257-8.742-11.185-14.013-11.57-14.27C59.359,240.811,51.902,248.139,51.902,248.139z"/>
		<path fill="#8DAF36" d="M33.583,257.074c0,0,1.414-6.171,4.628-7.199c3.214-1.028,22.626-6.042,34.84,6.428
			c12.213,12.47,12.213,14.507,12.213,14.507s-1.157,4.777,8.742-6.279c9.899-11.056,9.899-12.213,9.899-12.213
			s-2.571,17.058-3.214,18.492c-0.643,1.435,21.855-16.307,26.74-27.748c4.885-11.442,4.885-11.442,4.885-11.442
			s-14.399,4.5-27.255-5.657c-12.856-10.156-64.408-10.67-71.479,18.641S33.583,257.074,33.583,257.074z"/>
		<path fill="#F5274D" d="M31.526,263.116c0,0-3.343-4.5-2.7-7.456c0.643-2.957,5.271-11.827,16.327-12.47
			c11.056-0.643,18.513-5.528,30.34,8.099c11.827,13.627,16.513,15.21,13.656,18.275c-2.857,3.065-2.4,5.122-7.771-3.105
			c-5.371-8.228-35.968-20.312-42.91-11.827C31.526,263.116,31.526,263.116,31.526,263.116z"/>
		<ellipse fill="#FFFFFF" cx="131.878" cy="229.404" rx="7.811" ry="6.75"/>
	</g>
	<path d="M72.425,269.356c0,0,1.396,1.097,2.939,0c1.543-1.097,1.543-1.097,1.543-1.097s-1.465,2.597-3.682,2.224"/>
	<path d="M72.682,270.77c0,0,1.396,1.097,2.939,0c1.543-1.097,1.543-1.097,1.543-1.097s-1.465,2.597-3.682,2.224"/>
	<path d="M35.686,267.122c0,0-1.687,0.555-2.763-1.002c-1.076-1.557-1.076-1.557-1.076-1.557s0.492,2.941,2.703,3.346"/>
	<path d="M34.962,268.364c0,0-1.687,0.555-2.763-1.002c-1.076-1.557-1.076-1.557-1.076-1.557s0.492,2.941,2.703,3.346"/>
</g>
</svg>
